%YAML 1.1
%TAG !u! tag:unity3d.com,2011:
--- !u!74 &7400000
AnimationClip:
  m_ObjectHideFlags: 0
  m_CorrespondingSourceObject: {fileID: 0}
  m_PrefabInstance: {fileID: 0}
  m_PrefabAsset: {fileID: 0}
  m_Name: idle
  serializedVersion: 6
  m_Legacy: 0
  m_Compressed: 0
  m_UseHighQualityCurve: 1
  m_RotationCurves: []
  m_CompressedRotationCurves: []
  m_EulerCurves: []
  m_PositionCurves: []
  m_ScaleCurves: []
  m_FloatCurves: []
  m_PPtrCurves:
  - curve:
    - time: 0
      value: {fileID: 978942612559604503, guid: 40a6c12406a654e73baa8fe16e8003af,
        type: 3}
    - time: 0.083333336
      value: {fileID: 3499389992042037492, guid: 40a6c12406a654e73baa8fe16e8003af,
        type: 3}
    - time: 0.16666667
      value: {fileID: 6272215952258405886, guid: 40a6c12406a654e73baa8fe16e8003af,
        type: 3}
    - time: 0.25
      value: {fileID: 5525604288434156929, guid: 40a6c12406a654e73baa8fe16e8003af,
        type: 3}
    - time: 0.33333334
      value: {fileID: -9128658973605758887, guid: 40a6c12406a654e73baa8fe16e8003af,
        type: 3}
    - time: 0.41666666
      value: {fileID: 6624957032425983090, guid: 40a6c12406a654e73baa8fe16e8003af,
        type: 3}
    - time: 0.5
      value: {fileID: -8746356715637407356, guid: 40a6c12406a654e73baa8fe16e8003af,
        type: 3}
    - time: 0.5833333
      value: {fileID: -3390621440731453550, guid: 40a6c12406a654e73baa8fe16e8003af,
        type: 3}
    - time: 0.6666667
      value: {fileID: -7875682809517558336, guid: 40a6c12406a654e73baa8fe16e8003af,
        type: 3}
    - time: 0.75
      value: {fileID: -156024959467139302, guid: 40a6c12406a654e73baa8fe16e8003af,
        type: 3}
    - time: 0.8333333
      value: {fileID: -2891669467201962213, guid: 40a6c12406a654e73baa8fe16e8003af,
        type: 3}
    - time: 0.9166667
      value: {fileID: 7567795412921677137, guid: 40a6c12406a654e73baa8fe16e8003af,
        type: 3}
    - time: 1
      value: {fileID: 9086660843436551081, guid: 40a6c12406a654e73baa8fe16e8003af,
        type: 3}
    - time: 1.0833334
      value: {fileID: 1696862663458274415, guid: 40a6c12406a654e73baa8fe16e8003af,
        type: 3}
    - time: 1.1666666
      value: {fileID: -1190270102388883652, guid: 40a6c12406a654e73baa8fe16e8003af,
        type: 3}
    - time: 1.25
      value: {fileID: -3774167077852051937, guid: 40a6c12406a654e73baa8fe16e8003af,
        type: 3}
    - time: 1.3333334
      value: {fileID: 3202630611182490301, guid: 40a6c12406a654e73baa8fe16e8003af,
        type: 3}
    - time: 1.4166666
      value: {fileID: -1915146127631800914, guid: 40a6c12406a654e73baa8fe16e8003af,
        type: 3}
    - time: 1.5
      value: {fileID: 7683770573833639278, guid: 40a6c12406a654e73baa8fe16e8003af,
        type: 3}
    - time: 1.5833334
      value: {fileID: -7383098623627253533, guid: 40a6c12406a654e73baa8fe16e8003af,
        type: 3}
    - time: 1.6666666
      value: {fileID: -3248260237720140295, guid: 40a6c12406a654e73baa8fe16e8003af,
        type: 3}
    - time: 1.75
      value: {fileID: -8918514481698184932, guid: 40a6c12406a654e73baa8fe16e8003af,
        type: 3}
    - time: 1.8333334
      value: {fileID: 3941320006810150249, guid: 40a6c12406a654e73baa8fe16e8003af,
        type: 3}
    - time: 1.9166666
      value: {fileID: 6190107562779955330, guid: 40a6c12406a654e73baa8fe16e8003af,
        type: 3}
    - time: 2
      value: {fileID: -6375864165542783241, guid: 40a6c12406a654e73baa8fe16e8003af,
        type: 3}
    - time: 2.0833333
      value: {fileID: -2772542872825117692, guid: 40a6c12406a654e73baa8fe16e8003af,
        type: 3}
    - time: 2.1666667
      value: {fileID: -714901038497940776, guid: 40a6c12406a654e73baa8fe16e8003af,
        type: 3}
    - time: 2.25
      value: {fileID: 7435790635300447793, guid: 40a6c12406a654e73baa8fe16e8003af,
        type: 3}
    - time: 2.3333333
      value: {fileID: -7802393722442049376, guid: 40a6c12406a654e73baa8fe16e8003af,
        type: 3}
    - time: 2.4166667
      value: {fileID: 2410354533609502756, guid: 40a6c12406a654e73baa8fe16e8003af,
        type: 3}
    - time: 2.5
      value: {fileID: 3415655499011948509, guid: 40a6c12406a654e73baa8fe16e8003af,
        type: 3}
    - time: 2.5833333
      value: {fileID: -219206904842087115, guid: 40a6c12406a654e73baa8fe16e8003af,
        type: 3}
    - time: 2.6666667
      value: {fileID: 2931633332862028369, guid: 40a6c12406a654e73baa8fe16e8003af,
        type: 3}
    - time: 2.75
      value: {fileID: -3463134357295755177, guid: 40a6c12406a654e73baa8fe16e8003af,
        type: 3}
    - time: 2.8333333
      value: {fileID: -6564567830456769979, guid: 40a6c12406a654e73baa8fe16e8003af,
        type: 3}
    - time: 2.9166667
      value: {fileID: 489989750563669582, guid: 40a6c12406a654e73baa8fe16e8003af,
        type: 3}
    - time: 3
      value: {fileID: 7386788273095181914, guid: 40a6c12406a654e73baa8fe16e8003af,
        type: 3}
    - time: 3.0833333
      value: {fileID: 545741833608430397, guid: 40a6c12406a654e73baa8fe16e8003af,
        type: 3}
    attribute: m_Sprite
    path: 
    classID: 212
    script: {fileID: 0}
  m_SampleRate: 12
  m_WrapMode: 0
  m_Bounds:
    m_Center: {x: 0, y: 0, z: 0}
    m_Extent: {x: 0, y: 0, z: 0}
  m_ClipBindingConstant:
    genericBindings:
    - serializedVersion: 2
      path: 0
      attribute: 0
      script: {fileID: 0}
      typeID: 212
      customType: 23
      isPPtrCurve: 1
    pptrCurveMapping:
    - {fileID: 978942612559604503, guid: 40a6c12406a654e73baa8fe16e8003af, type: 3}
    - {fileID: 3499389992042037492, guid: 40a6c12406a654e73baa8fe16e8003af, type: 3}
    - {fileID: 6272215952258405886, guid: 40a6c12406a654e73baa8fe16e8003af, type: 3}
    - {fileID: 5525604288434156929, guid: 40a6c12406a654e73baa8fe16e8003af, type: 3}
    - {fileID: -9128658973605758887, guid: 40a6c12406a654e73baa8fe16e8003af, type: 3}
    - {fileID: 6624957032425983090, guid: 40a6c12406a654e73baa8fe16e8003af, type: 3}
    - {fileID: -8746356715637407356, guid: 40a6c12406a654e73baa8fe16e8003af, type: 3}
    - {fileID: -3390621440731453550, guid: 40a6c12406a654e73baa8fe16e8003af, type: 3}
    - {fileID: -7875682809517558336, guid: 40a6c12406a654e73baa8fe16e8003af, type: 3}
    - {fileID: -156024959467139302, guid: 40a6c12406a654e73baa8fe16e8003af, type: 3}
    - {fileID: -2891669467201962213, guid: 40a6c12406a654e73baa8fe16e8003af, type: 3}
    - {fileID: 7567795412921677137, guid: 40a6c12406a654e73baa8fe16e8003af, type: 3}
    - {fileID: 9086660843436551081, guid: 40a6c12406a654e73baa8fe16e8003af, type: 3}
    - {fileID: 1696862663458274415, guid: 40a6c12406a654e73baa8fe16e8003af, type: 3}
    - {fileID: -1190270102388883652, guid: 40a6c12406a654e73baa8fe16e8003af, type: 3}
    - {fileID: -3774167077852051937, guid: 40a6c12406a654e73baa8fe16e8003af, type: 3}
    - {fileID: 3202630611182490301, guid: 40a6c12406a654e73baa8fe16e8003af, type: 3}
    - {fileID: -1915146127631800914, guid: 40a6c12406a654e73baa8fe16e8003af, type: 3}
    - {fileID: 7683770573833639278, guid: 40a6c12406a654e73baa8fe16e8003af, type: 3}
    - {fileID: -7383098623627253533, guid: 40a6c12406a654e73baa8fe16e8003af, type: 3}
    - {fileID: -3248260237720140295, guid: 40a6c12406a654e73baa8fe16e8003af, type: 3}
    - {fileID: -8918514481698184932, guid: 40a6c12406a654e73baa8fe16e8003af, type: 3}
    - {fileID: 3941320006810150249, guid: 40a6c12406a654e73baa8fe16e8003af, type: 3}
    - {fileID: 6190107562779955330, guid: 40a6c12406a654e73baa8fe16e8003af, type: 3}
    - {fileID: -6375864165542783241, guid: 40a6c12406a654e73baa8fe16e8003af, type: 3}
    - {fileID: -2772542872825117692, guid: 40a6c12406a654e73baa8fe16e8003af, type: 3}
    - {fileID: -714901038497940776, guid: 40a6c12406a654e73baa8fe16e8003af, type: 3}
    - {fileID: 7435790635300447793, guid: 40a6c12406a654e73baa8fe16e8003af, type: 3}
    - {fileID: -7802393722442049376, guid: 40a6c12406a654e73baa8fe16e8003af, type: 3}
    - {fileID: 2410354533609502756, guid: 40a6c12406a654e73baa8fe16e8003af, type: 3}
    - {fileID: 3415655499011948509, guid: 40a6c12406a654e73baa8fe16e8003af, type: 3}
    - {fileID: -219206904842087115, guid: 40a6c12406a654e73baa8fe16e8003af, type: 3}
    - {fileID: 2931633332862028369, guid: 40a6c12406a654e73baa8fe16e8003af, type: 3}
    - {fileID: -3463134357295755177, guid: 40a6c12406a654e73baa8fe16e8003af, type: 3}
    - {fileID: -6564567830456769979, guid: 40a6c12406a654e73baa8fe16e8003af, type: 3}
    - {fileID: 489989750563669582, guid: 40a6c12406a654e73baa8fe16e8003af, type: 3}
    - {fileID: 7386788273095181914, guid: 40a6c12406a654e73baa8fe16e8003af, type: 3}
    - {fileID: 545741833608430397, guid: 40a6c12406a654e73baa8fe16e8003af, type: 3}
  m_AnimationClipSettings:
    serializedVersion: 2
    m_AdditiveReferencePoseClip: {fileID: 0}
    m_AdditiveReferencePoseTime: 0
    m_StartTime: 0
    m_StopTime: 3.1666665
    m_OrientationOffsetY: 0
    m_Level: 0
    m_CycleOffset: 0
    m_HasAdditiveReferencePose: 0
    m_LoopTime: 1
    m_LoopBlend: 0
    m_LoopBlendOrientation: 0
    m_LoopBlendPositionY: 0
    m_LoopBlendPositionXZ: 0
    m_KeepOriginalOrientation: 0
    m_KeepOriginalPositionY: 1
    m_KeepOriginalPositionXZ: 0
    m_HeightFromFeet: 0
    m_Mirror: 0
  m_EditorCurves: []
  m_EulerEditorCurves: []
  m_HasGenericRootTransform: 0
  m_HasMotionFloatCurves: 0
  m_Events: []
